{
  "name": "typescript-typings",
  "dependencies": {},
  "files": [
    "aws-sdk-typescript/aws-sdk-common.d.ts",
    "aws-sdk-typescript/aws-cloudfront.d.ts",
    "aws-sdk-typescript/aws-elastictranscoder.d.ts",
    "aws-sdk-typescript/aws-iam.d.ts",
    "aws-sdk-typescript/aws-s3.d.ts",
    "aws-sdk-typescript/aws-sdk.d.ts"
  ],
  "globalDependencies": {
    "typescript-typings": "bitbucket:dreadbeard/typescript-typings/#0de9825f5c4a52d6dcb7f3dbdecbdb449e0a2fe2"
  }
}
